1, 1
0.976562, 0.628736
0.96875, 0.504981
0.960938, 0.429267
0.953125, 0.371022
0.851562, 0.110258
0.734375, 0.0730575
0.617188, 0.0477818
0.5, 0.00727954
0.453125, -0.012148
0.28125, -0.15341
0.171875, -0.213387
0.101562, -0.167394
0.0703125, -0.124474
0.0625, -0.112366
0.0546875, -0.0992133
0, 0

L2(line) absolute error: 0.0251818
L2(line) relative error: 0.253883
